EESchema Schematic File Version 4
EELAYER 30 0
EELAYER END
$Descr A4 11693 8268
encoding utf-8
Sheet 1 1
Title ""
Date ""
Rev ""
Comp ""
Comment1 ""
Comment2 ""
Comment3 ""
Comment4 ""
$EndDescr
$Comp
L RF_Module:RFM95W-868S2 U2
U 1 1 5FF4BB32
P 9850 2050
F 0 "U2" H 10250 2650 50  0000 C CNN
F 1 "RFM95W-868S2" H 10250 2550 50  0000 C CNN
F 2 "masterarbeit:HOPERF_RFM9XW_SMD_Castellated" H 6550 3700 50  0001 C CNN
F 3 "https://www.hoperf.com/data/upload/portal/20181127/5bfcbea20e9ef.pdf" H 6550 3700 50  0001 C CNN
	1    9850 2050
	1    0    0    -1  
$EndComp
$Comp
L power:GND #PWR0102
U 1 1 5FF4FCA4
P 5700 4550
F 0 "#PWR0102" H 5700 4300 50  0001 C CNN
F 1 "GND" H 5705 4377 50  0000 C CNN
F 2 "" H 5700 4550 50  0001 C CNN
F 3 "" H 5700 4550 50  0001 C CNN
	1    5700 4550
	1    0    0    -1  
$EndComp
Text GLabel 5000 2750 0    50   Input ~ 0
RX
Text GLabel 5000 2650 0    50   Input ~ 0
TX
Text GLabel 5000 4050 0    50   Input ~ 0
SWCLK
Text GLabel 5000 3950 0    50   Input ~ 0
SWDIO
Text GLabel 5000 3850 0    50   Input ~ 0
SDA
Text GLabel 5000 3750 0    50   Input ~ 0
SCL
Text GLabel 5000 4150 0    50   Input ~ 0
LRCL_WS
Text GLabel 6400 3150 2    50   Input ~ 0
DOUT
Text GLabel 6400 2950 2    50   Input ~ 0
BCLK
Text GLabel 5000 3050 0    50   Input ~ 0
MOSI
Text GLabel 5000 3150 0    50   Input ~ 0
SPI_NSS
Text GLabel 5000 2950 0    50   Input ~ 0
MISO
Text GLabel 6400 2650 2    50   Input ~ 0
DIO0
Text GLabel 5000 3250 0    50   Input ~ 0
LED1
Text GLabel 6400 3450 2    50   Input ~ 0
SCK
Text GLabel 5000 3350 0    50   Input ~ 0
SPI_RESET
Text GLabel 9350 2250 0    50   Input ~ 0
SPI_RESET
Text GLabel 9350 2050 0    50   Input ~ 0
SPI_NSS
Text GLabel 9350 1950 0    50   Input ~ 0
MISO
Text GLabel 9350 1850 0    50   Input ~ 0
MOSI
Text GLabel 9350 1750 0    50   Input ~ 0
SCK
Text GLabel 10350 2450 2    50   Input ~ 0
DIO0
$Comp
L power:+3V3 #PWR0103
U 1 1 5FF567B1
P 9850 800
F 0 "#PWR0103" H 9850 650 50  0001 C CNN
F 1 "+3V3" H 9865 973 50  0000 C CNN
F 2 "" H 9850 800 50  0001 C CNN
F 3 "" H 9850 800 50  0001 C CNN
	1    9850 800 
	1    0    0    -1  
$EndComp
$Comp
L power:GND #PWR0104
U 1 1 5FF56D78
P 9850 2800
F 0 "#PWR0104" H 9850 2550 50  0001 C CNN
F 1 "GND" H 9855 2627 50  0000 C CNN
F 2 "" H 9850 2800 50  0001 C CNN
F 3 "" H 9850 2800 50  0001 C CNN
	1    9850 2800
	1    0    0    -1  
$EndComp
Wire Wire Line
	9750 2650 9750 2800
Wire Wire Line
	9750 2800 9850 2800
Wire Wire Line
	9950 2650 9950 2800
Wire Wire Line
	9950 2800 9850 2800
Connection ~ 9850 2800
Wire Wire Line
	9850 2650 9850 2800
$Comp
L Device:LED D1
U 1 1 5FF59892
P 2850 3700
F 0 "D1" H 2843 3917 50  0000 C CNN
F 1 "LED" H 2843 3826 50  0000 C CNN
F 2 "LED_THT:LED_D3.0mm" H 2850 3700 50  0001 C CNN
F 3 "~" H 2850 3700 50  0001 C CNN
	1    2850 3700
	1    0    0    -1  
$EndComp
$Comp
L Device:R R3
U 1 1 5FF5B2E5
P 3150 3700
F 0 "R3" V 2943 3700 50  0000 C CNN
F 1 "480R" V 3034 3700 50  0000 C CNN
F 2 "Resistor_SMD:R_1206_3216Metric_Pad1.30x1.75mm_HandSolder" V 3080 3700 50  0001 C CNN
F 3 "~" H 3150 3700 50  0001 C CNN
	1    3150 3700
	0    1    1    0   
$EndComp
$Comp
L power:GND #PWR0107
U 1 1 5FF5DFEA
P 2400 3700
F 0 "#PWR0107" H 2400 3450 50  0001 C CNN
F 1 "GND" H 2405 3527 50  0000 C CNN
F 2 "" H 2400 3700 50  0001 C CNN
F 3 "" H 2400 3700 50  0001 C CNN
	1    2400 3700
	1    0    0    -1  
$EndComp
Wire Wire Line
	2700 3700 2400 3700
Text GLabel 3300 3700 2    50   Input ~ 0
LED1
$Comp
L Connector_Generic:Conn_02x03_Odd_Even J1
U 1 1 5FF594B6
P 10000 5350
F 0 "J1" H 10050 5667 50  0000 C CNN
F 1 "Debug/USART" H 10050 5576 50  0000 C CNN
F 2 "Connector_PinHeader_2.54mm:PinHeader_2x03_P2.54mm_Vertical" H 10000 5350 50  0001 C CNN
F 3 "~" H 10000 5350 50  0001 C CNN
	1    10000 5350
	1    0    0    -1  
$EndComp
$Comp
L Jumper:Jumper_2_Open JP1
U 1 1 5FF5D896
P 2950 3250
F 0 "JP1" H 2950 3485 50  0000 C CNN
F 1 "Jumper_2_Open" H 2950 3394 50  0000 C CNN
F 2 "Jumper:SolderJumper-2_P1.3mm_Open_RoundedPad1.0x1.5mm" H 2950 3250 50  0001 C CNN
F 3 "~" H 2950 3250 50  0001 C CNN
	1    2950 3250
	1    0    0    -1  
$EndComp
$Comp
L power:+3V3 #PWR04
U 1 1 5FF6967E
P 9350 5250
F 0 "#PWR04" H 9350 5100 50  0001 C CNN
F 1 "+3V3" H 9365 5423 50  0000 C CNN
F 2 "" H 9350 5250 50  0001 C CNN
F 3 "" H 9350 5250 50  0001 C CNN
	1    9350 5250
	1    0    0    -1  
$EndComp
$Comp
L power:GND #PWR05
U 1 1 5FF6AAAA
P 9350 5350
F 0 "#PWR05" H 9350 5100 50  0001 C CNN
F 1 "GND" H 9355 5177 50  0000 C CNN
F 2 "" H 9350 5350 50  0001 C CNN
F 3 "" H 9350 5350 50  0001 C CNN
	1    9350 5350
	1    0    0    -1  
$EndComp
Wire Wire Line
	9350 5250 9800 5250
Wire Wire Line
	9350 5350 9800 5350
Text GLabel 10300 5450 2    50   Input ~ 0
SWCLK
Text GLabel 9800 5450 0    50   Input ~ 0
SWDIO
Text GLabel 10300 5350 2    50   Input ~ 0
TX
Text GLabel 10300 5250 2    50   Input ~ 0
RX
Text GLabel 6400 3750 2    50   Input ~ 0
I²C-ADDRESS
Text GLabel 3150 3250 2    50   Input ~ 0
I²C-ADDRESS
Wire Wire Line
	2750 3250 2500 3250
Wire Wire Line
	7000 5400 6750 5400
Wire Wire Line
	7000 5250 6750 5250
$Comp
L power:GND #PWR06
U 1 1 5FFA14A5
P 9050 4450
F 0 "#PWR06" H 9050 4200 50  0001 C CNN
F 1 "GND" H 9055 4277 50  0000 C CNN
F 2 "" H 9050 4450 50  0001 C CNN
F 3 "" H 9050 4450 50  0001 C CNN
	1    9050 4450
	1    0    0    -1  
$EndComp
$Comp
L power:+3V3 #PWR07
U 1 1 5FFA26C5
P 10550 4150
F 0 "#PWR07" H 10550 4000 50  0001 C CNN
F 1 "+3V3" H 10565 4323 50  0000 C CNN
F 2 "" H 10550 4150 50  0001 C CNN
F 3 "" H 10550 4150 50  0001 C CNN
	1    10550 4150
	1    0    0    -1  
$EndComp
$Comp
L Connector_Generic:Conn_01x04 J3
U 1 1 5FFACF3F
P 7800 3150
F 0 "J3" H 7718 2725 50  0000 C CNN
F 1 "I²C IN" H 7718 2816 50  0000 C CNN
F 2 "Connector_JST:JST_PH_B4B-PH-SM4-TB_1x04-1MP_P2.00mm_Vertical" H 7800 3150 50  0001 C CNN
F 3 "~" H 7800 3150 50  0001 C CNN
	1    7800 3150
	-1   0    0    1   
$EndComp
$Comp
L power:GND #PWR012
U 1 1 5FFBDD82
P 8300 3250
F 0 "#PWR012" H 8300 3000 50  0001 C CNN
F 1 "GND" H 8305 3077 50  0000 C CNN
F 2 "" H 8300 3250 50  0001 C CNN
F 3 "" H 8300 3250 50  0001 C CNN
	1    8300 3250
	1    0    0    -1  
$EndComp
Wire Wire Line
	8000 3250 8300 3250
$Comp
L Device:R R1
U 1 1 5FFC59E5
P 8200 2750
F 0 "R1" H 8270 2796 50  0000 L CNN
F 1 "4k7" H 8270 2705 50  0000 L CNN
F 2 "Resistor_SMD:R_1206_3216Metric_Pad1.30x1.75mm_HandSolder" V 8130 2750 50  0001 C CNN
F 3 "~" H 8200 2750 50  0001 C CNN
	1    8200 2750
	1    0    0    -1  
$EndComp
$Comp
L power:+3V3 #PWR011
U 1 1 5FFC76F6
P 8200 2600
F 0 "#PWR011" H 8200 2450 50  0001 C CNN
F 1 "+3V3" H 8215 2773 50  0000 C CNN
F 2 "" H 8200 2600 50  0001 C CNN
F 3 "" H 8200 2600 50  0001 C CNN
	1    8200 2600
	1    0    0    -1  
$EndComp
$Comp
L power:+3V3 #PWR013
U 1 1 5FFC7E83
P 8600 2750
F 0 "#PWR013" H 8600 2600 50  0001 C CNN
F 1 "+3V3" H 8615 2923 50  0000 C CNN
F 2 "" H 8600 2750 50  0001 C CNN
F 3 "" H 8600 2750 50  0001 C CNN
	1    8600 2750
	1    0    0    -1  
$EndComp
Text GLabel 8300 2950 2    50   Input ~ 0
SCL
Wire Wire Line
	8000 2950 8200 2950
Wire Wire Line
	8200 2950 8200 2900
Wire Wire Line
	8000 3050 8600 3050
Wire Wire Line
	8200 2950 8300 2950
Connection ~ 8200 2950
$Comp
L Device:R R2
U 1 1 5FFDE894
P 8600 2900
F 0 "R2" H 8670 2946 50  0000 L CNN
F 1 "4k7" H 8670 2855 50  0000 L CNN
F 2 "Resistor_SMD:R_1206_3216Metric_Pad1.30x1.75mm_HandSolder" V 8530 2900 50  0001 C CNN
F 3 "~" H 8600 2900 50  0001 C CNN
	1    8600 2900
	1    0    0    -1  
$EndComp
Text GLabel 8750 3050 2    50   Input ~ 0
SDA
Wire Wire Line
	8600 3050 8750 3050
Connection ~ 8600 3050
Wire Wire Line
	8000 3150 9050 3150
$Comp
L power:+5V #PWR014
U 1 1 5FFE92DB
P 9050 3150
F 0 "#PWR014" H 9050 3000 50  0001 C CNN
F 1 "+5V" H 9065 3323 50  0000 C CNN
F 2 "" H 9050 3150 50  0001 C CNN
F 3 "" H 9050 3150 50  0001 C CNN
	1    9050 3150
	1    0    0    -1  
$EndComp
$Comp
L power:GND #PWR017
U 1 1 600498C3
P 7000 5400
F 0 "#PWR017" H 7000 5150 50  0001 C CNN
F 1 "GND" H 7005 5227 50  0000 C CNN
F 2 "" H 7000 5400 50  0001 C CNN
F 3 "" H 7000 5400 50  0001 C CNN
	1    7000 5400
	1    0    0    -1  
$EndComp
$Comp
L power:+BATT #PWR016
U 1 1 6004B1B0
P 7000 5250
F 0 "#PWR016" H 7000 5100 50  0001 C CNN
F 1 "+BATT" H 7015 5423 50  0000 C CNN
F 2 "" H 7000 5250 50  0001 C CNN
F 3 "" H 7000 5250 50  0001 C CNN
	1    7000 5250
	1    0    0    -1  
$EndComp
$Comp
L masterarbeit-rescue:STM32G071KxT-STM32G0 U4
U 1 1 6007BB38
P 5700 3450
F 0 "U4" H 6250 4650 50  0000 C CNN
F 1 "STM32G071KxT" H 6050 4550 50  0000 C CNN
F 2 "Package_QFP:LQFP-32_7x7mm_P0.8mm" H 5600 2400 50  0001 R CNN
F 3 "https://www.st.com/resource/en/datasheet/stm32g071kb.pdf" H 5700 3450 50  0001 C CNN
	1    5700 3450
	1    0    0    -1  
$EndComp
$Comp
L power:+3V3 #PWR02
U 1 1 600941E8
P 2050 1700
F 0 "#PWR02" H 2050 1550 50  0001 C CNN
F 1 "+3V3" H 2065 1873 50  0000 C CNN
F 2 "" H 2050 1700 50  0001 C CNN
F 3 "" H 2050 1700 50  0001 C CNN
	1    2050 1700
	1    0    0    -1  
$EndComp
$Comp
L power:GND #PWR08
U 1 1 60094D04
P 2050 2600
F 0 "#PWR08" H 2050 2350 50  0001 C CNN
F 1 "GND" H 2055 2427 50  0000 C CNN
F 2 "" H 2050 2600 50  0001 C CNN
F 3 "" H 2050 2600 50  0001 C CNN
	1    2050 2600
	1    0    0    -1  
$EndComp
$Comp
L Device:R R4
U 1 1 6009A5CC
P 2050 2000
F 0 "R4" V 1843 2000 50  0000 C CNN
F 1 "?R" V 1934 2000 50  0000 C CNN
F 2 "Resistor_SMD:R_1206_3216Metric_Pad1.30x1.75mm_HandSolder" V 1980 2000 50  0001 C CNN
F 3 "~" H 2050 2000 50  0001 C CNN
	1    2050 2000
	-1   0    0    1   
$EndComp
$Comp
L Device:R R5
U 1 1 600A5EBF
P 2050 2300
F 0 "R5" V 1843 2300 50  0000 C CNN
F 1 "?R" V 1934 2300 50  0000 C CNN
F 2 "Resistor_SMD:R_1206_3216Metric_Pad1.30x1.75mm_HandSolder" V 1980 2300 50  0001 C CNN
F 3 "~" H 2050 2300 50  0001 C CNN
	1    2050 2300
	-1   0    0    1   
$EndComp
Wire Wire Line
	2050 1700 2050 1850
Wire Wire Line
	2050 2450 2050 2600
Text GLabel 2350 2150 2    50   Input ~ 0
DEVICE_ID
Wire Wire Line
	2350 2150 2050 2150
Connection ~ 2050 2150
$Comp
L Connector_Generic:Conn_01x05 J4
U 1 1 600AF8B5
P 7000 1450
F 0 "J4" H 7080 1492 50  0000 L CNN
F 1 "Microphone Connector" H 7080 1401 50  0000 L CNN
F 2 "Connector_PinSocket_2.54mm:PinSocket_1x05_P2.54mm_Vertical" H 7000 1450 50  0001 C CNN
F 3 "~" H 7000 1450 50  0001 C CNN
	1    7000 1450
	1    0    0    -1  
$EndComp
Text GLabel 6800 1550 0    50   Input ~ 0
DOUT
$Comp
L power:+3V3 #PWR09
U 1 1 600B8034
P 6250 1250
F 0 "#PWR09" H 6250 1100 50  0001 C CNN
F 1 "+3V3" H 6265 1423 50  0000 C CNN
F 2 "" H 6250 1250 50  0001 C CNN
F 3 "" H 6250 1250 50  0001 C CNN
	1    6250 1250
	1    0    0    -1  
$EndComp
Text GLabel 6800 1650 0    50   Input ~ 0
LRCL_WS
Text GLabel 6800 1450 0    50   Input ~ 0
BCLK
$Comp
L power:GND #PWR015
U 1 1 600BB656
P 6250 1350
F 0 "#PWR015" H 6250 1100 50  0001 C CNN
F 1 "GND" H 6255 1177 50  0000 C CNN
F 2 "" H 6250 1350 50  0001 C CNN
F 3 "" H 6250 1350 50  0001 C CNN
	1    6250 1350
	1    0    0    -1  
$EndComp
Wire Wire Line
	6250 1250 6800 1250
Wire Wire Line
	6250 1350 6800 1350
$Comp
L power:GND #PWR01
U 1 1 600F4120
P 2500 3250
F 0 "#PWR01" H 2500 3000 50  0001 C CNN
F 1 "GND" H 2505 3077 50  0000 C CNN
F 2 "" H 2500 3250 50  0001 C CNN
F 3 "" H 2500 3250 50  0001 C CNN
	1    2500 3250
	1    0    0    -1  
$EndComp
$Comp
L power:GND #PWR019
U 1 1 601233C9
P 3350 2600
F 0 "#PWR019" H 3350 2350 50  0001 C CNN
F 1 "GND" H 3355 2427 50  0000 C CNN
F 2 "" H 3350 2600 50  0001 C CNN
F 3 "" H 3350 2600 50  0001 C CNN
	1    3350 2600
	1    0    0    -1  
$EndComp
$Comp
L Device:R R6
U 1 1 601233D3
P 3350 2000
F 0 "R6" V 3143 2000 50  0000 C CNN
F 1 "?R" V 3234 2000 50  0000 C CNN
F 2 "Resistor_SMD:R_1206_3216Metric_Pad1.30x1.75mm_HandSolder" V 3280 2000 50  0001 C CNN
F 3 "~" H 3350 2000 50  0001 C CNN
	1    3350 2000
	-1   0    0    1   
$EndComp
$Comp
L Device:R R7
U 1 1 601233DD
P 3350 2300
F 0 "R7" V 3143 2300 50  0000 C CNN
F 1 "?R" V 3234 2300 50  0000 C CNN
F 2 "Resistor_SMD:R_1206_3216Metric_Pad1.30x1.75mm_HandSolder" V 3280 2300 50  0001 C CNN
F 3 "~" H 3350 2300 50  0001 C CNN
	1    3350 2300
	-1   0    0    1   
$EndComp
Wire Wire Line
	3350 1700 3350 1850
Wire Wire Line
	3350 2450 3350 2600
Wire Wire Line
	3650 2150 3350 2150
Connection ~ 3350 2150
Text GLabel 3650 2150 2    50   Input ~ 0
BATT_SENSE
$Comp
L power:+BATT #PWR018
U 1 1 6012E3E3
P 3350 1700
F 0 "#PWR018" H 3350 1550 50  0001 C CNN
F 1 "+BATT" H 3365 1873 50  0000 C CNN
F 2 "" H 3350 1700 50  0001 C CNN
F 3 "" H 3350 1700 50  0001 C CNN
	1    3350 1700
	1    0    0    -1  
$EndComp
Text GLabel 5000 2850 0    50   Input ~ 0
DEVICE_ID
Text GLabel 6400 2750 2    50   Input ~ 0
BATT_SENSE
$Comp
L Connector_Generic:Conn_01x01 J2
U 1 1 601E388E
P 6550 5250
F 0 "J2" H 6468 5025 50  0000 C CNN
F 1 "Conn_01x01" H 6468 5116 50  0000 C CNN
F 2 "Connector_Wire:SolderWirePad_1x01_SMD_1x2mm" H 6550 5250 50  0001 C CNN
F 3 "~" H 6550 5250 50  0001 C CNN
	1    6550 5250
	-1   0    0    1   
$EndComp
$Comp
L Connector_Generic:Conn_01x01 J5
U 1 1 601E3EB3
P 6550 5400
F 0 "J5" H 6550 5600 50  0000 C CNN
F 1 "Conn_01x01" H 6550 5500 50  0000 C CNN
F 2 "Connector_Wire:SolderWirePad_1x01_SMD_1x2mm" H 6550 5400 50  0001 C CNN
F 3 "~" H 6550 5400 50  0001 C CNN
	1    6550 5400
	-1   0    0    1   
$EndComp
$Comp
L Regulator_Linear:L78L33_TO92 U1
U 1 1 600FF264
P 9050 4150
F 0 "U1" H 9050 4392 50  0000 C CNN
F 1 "L78L33_TO92" H 9050 4301 50  0000 C CNN
F 2 "Package_TO_SOT_THT:TO-92_Inline" H 9050 4375 50  0001 C CIN
F 3 "http://www.st.com/content/ccc/resource/technical/document/datasheet/15/55/e5/aa/23/5b/43/fd/CD00000446.pdf/files/CD00000446.pdf/jcr:content/translations/en.CD00000446.pdf" H 9050 4100 50  0001 C CNN
	1    9050 4150
	1    0    0    -1  
$EndComp
$Comp
L Connector_Generic:Conn_01x01 J6
U 1 1 60111880
P 10550 1750
F 0 "J6" H 10630 1792 50  0000 L CNN
F 1 "Conn_01x01" H 10630 1701 50  0000 L CNN
F 2 "Connector_PinSocket_2.54mm:PinSocket_1x01_P2.54mm_Vertical" H 10550 1750 50  0001 C CNN
F 3 "~" H 10550 1750 50  0001 C CNN
	1    10550 1750
	1    0    0    -1  
$EndComp
$Comp
L power:+3V3 #PWR010
U 1 1 60190E33
P 5700 1300
F 0 "#PWR010" H 5700 1150 50  0001 C CNN
F 1 "+3V3" H 5715 1473 50  0000 C CNN
F 2 "" H 5700 1300 50  0001 C CNN
F 3 "" H 5700 1300 50  0001 C CNN
	1    5700 1300
	1    0    0    -1  
$EndComp
$Comp
L Device:C_Small C4
U 1 1 601CF5F2
P 8450 4250
F 0 "C4" H 8542 4296 50  0000 L CNN
F 1 "100nF" H 8542 4205 50  0000 L CNN
F 2 "Capacitor_SMD:C_1206_3216Metric_Pad1.33x1.80mm_HandSolder" H 8450 4250 50  0001 C CNN
F 3 "~" H 8450 4250 50  0001 C CNN
	1    8450 4250
	1    0    0    -1  
$EndComp
$Comp
L Device:C_Small C3
U 1 1 601CF5F8
P 8050 4250
F 0 "C3" H 8142 4296 50  0000 L CNN
F 1 "4.7µF" H 8142 4205 50  0000 L CNN
F 2 "Capacitor_SMD:C_1206_3216Metric_Pad1.33x1.80mm_HandSolder" H 8050 4250 50  0001 C CNN
F 3 "~" H 8050 4250 50  0001 C CNN
	1    8050 4250
	1    0    0    -1  
$EndComp
$Comp
L Device:C_Small C6
U 1 1 601E7ABB
P 9600 950
F 0 "C6" V 9371 950 50  0000 C CNN
F 1 "4.7µF" V 9462 950 50  0000 C CNN
F 2 "Capacitor_SMD:C_1206_3216Metric_Pad1.33x1.80mm_HandSolder" H 9600 950 50  0001 C CNN
F 3 "~" H 9600 950 50  0001 C CNN
	1    9600 950 
	0    1    1    0   
$EndComp
$Comp
L Device:C_Small C7
U 1 1 601EC4C2
P 9600 1350
F 0 "C7" V 9371 1350 50  0000 C CNN
F 1 "100nF" V 9462 1350 50  0000 C CNN
F 2 "Capacitor_SMD:C_1206_3216Metric_Pad1.33x1.80mm_HandSolder" H 9600 1350 50  0001 C CNN
F 3 "~" H 9600 1350 50  0001 C CNN
	1    9600 1350
	0    1    1    0   
$EndComp
Wire Wire Line
	9350 1350 9500 1350
Wire Wire Line
	9850 1350 9850 1550
$Comp
L power:GND #PWR024
U 1 1 601EF438
P 9350 1450
F 0 "#PWR024" H 9350 1200 50  0001 C CNN
F 1 "GND" H 9355 1277 50  0000 C CNN
F 2 "" H 9350 1450 50  0001 C CNN
F 3 "" H 9350 1450 50  0001 C CNN
	1    9350 1450
	1    0    0    -1  
$EndComp
Wire Wire Line
	9350 1350 9350 1450
Connection ~ 9350 1350
Wire Wire Line
	9500 950  9350 950 
Wire Wire Line
	9350 950  9350 1350
Wire Wire Line
	9700 950  9850 950 
Wire Wire Line
	9850 950  9850 800 
Wire Wire Line
	9850 1350 9700 1350
Wire Wire Line
	9850 1350 9850 950 
Connection ~ 9850 1350
Connection ~ 9850 950 
$Comp
L Device:C_Small C8
U 1 1 601D17B5
P 10000 4250
F 0 "C8" H 10092 4296 50  0000 L CNN
F 1 "4.7µF" H 10092 4205 50  0000 L CNN
F 2 "Capacitor_SMD:C_1206_3216Metric_Pad1.33x1.80mm_HandSolder" H 10000 4250 50  0001 C CNN
F 3 "~" H 10000 4250 50  0001 C CNN
	1    10000 4250
	1    0    0    -1  
$EndComp
$Comp
L Device:C_Small C5
U 1 1 601D17AF
P 9550 4250
F 0 "C5" H 9642 4296 50  0000 L CNN
F 1 "100nF" H 9642 4205 50  0000 L CNN
F 2 "Capacitor_SMD:C_1206_3216Metric_Pad1.33x1.80mm_HandSolder" H 9550 4250 50  0001 C CNN
F 3 "~" H 9550 4250 50  0001 C CNN
	1    9550 4250
	1    0    0    -1  
$EndComp
Wire Wire Line
	9350 4150 9550 4150
Connection ~ 9550 4150
Wire Wire Line
	9550 4150 10000 4150
Connection ~ 10000 4150
Wire Wire Line
	10000 4150 10550 4150
$Comp
L power:GND #PWR025
U 1 1 602799D7
P 9550 4350
F 0 "#PWR025" H 9550 4100 50  0001 C CNN
F 1 "GND" H 9555 4177 50  0000 C CNN
F 2 "" H 9550 4350 50  0001 C CNN
F 3 "" H 9550 4350 50  0001 C CNN
	1    9550 4350
	1    0    0    -1  
$EndComp
$Comp
L power:GND #PWR026
U 1 1 60279F5C
P 10000 4350
F 0 "#PWR026" H 10000 4100 50  0001 C CNN
F 1 "GND" H 10005 4177 50  0000 C CNN
F 2 "" H 10000 4350 50  0001 C CNN
F 3 "" H 10000 4350 50  0001 C CNN
	1    10000 4350
	1    0    0    -1  
$EndComp
Wire Wire Line
	8750 4150 8450 4150
Connection ~ 8450 4150
$Comp
L power:+BATT #PWR020
U 1 1 60296798
P 7650 4150
F 0 "#PWR020" H 7650 4000 50  0001 C CNN
F 1 "+BATT" H 7665 4323 50  0000 C CNN
F 2 "" H 7650 4150 50  0001 C CNN
F 3 "" H 7650 4150 50  0001 C CNN
	1    7650 4150
	1    0    0    -1  
$EndComp
$Comp
L power:+5V #PWR021
U 1 1 60297059
P 7900 4150
F 0 "#PWR021" H 7900 4000 50  0001 C CNN
F 1 "+5V" H 7915 4323 50  0000 C CNN
F 2 "" H 7900 4150 50  0001 C CNN
F 3 "" H 7900 4150 50  0001 C CNN
	1    7900 4150
	1    0    0    -1  
$EndComp
Wire Wire Line
	8050 4150 8450 4150
Wire Wire Line
	8050 4150 7900 4150
Connection ~ 8050 4150
Connection ~ 7900 4150
Wire Wire Line
	7900 4150 7650 4150
$Comp
L power:GND #PWR022
U 1 1 6029A386
P 8050 4350
F 0 "#PWR022" H 8050 4100 50  0001 C CNN
F 1 "GND" H 8055 4177 50  0000 C CNN
F 2 "" H 8050 4350 50  0001 C CNN
F 3 "" H 8050 4350 50  0001 C CNN
	1    8050 4350
	1    0    0    -1  
$EndComp
$Comp
L power:GND #PWR023
U 1 1 6029A978
P 8450 4350
F 0 "#PWR023" H 8450 4100 50  0001 C CNN
F 1 "GND" H 8455 4177 50  0000 C CNN
F 2 "" H 8450 4350 50  0001 C CNN
F 3 "" H 8450 4350 50  0001 C CNN
	1    8450 4350
	1    0    0    -1  
$EndComp
$Comp
L power:GND #PWR03
U 1 1 602CBD63
P 5150 2000
F 0 "#PWR03" H 5150 1750 50  0001 C CNN
F 1 "GND" H 5155 1827 50  0000 C CNN
F 2 "" H 5150 2000 50  0001 C CNN
F 3 "" H 5150 2000 50  0001 C CNN
	1    5150 2000
	1    0    0    -1  
$EndComp
Wire Wire Line
	5150 1550 5150 1900
Wire Wire Line
	5700 1300 5700 1550
$Comp
L Device:C_Small C1
U 1 1 602D3A6D
P 5450 1550
F 0 "C1" V 5221 1550 50  0000 C CNN
F 1 "4.7µF" V 5312 1550 50  0000 C CNN
F 2 "Capacitor_SMD:C_1206_3216Metric_Pad1.33x1.80mm_HandSolder" H 5450 1550 50  0001 C CNN
F 3 "~" H 5450 1550 50  0001 C CNN
	1    5450 1550
	0    1    1    0   
$EndComp
$Comp
L Device:C_Small C2
U 1 1 602D6D94
P 5450 1900
F 0 "C2" V 5221 1900 50  0000 C CNN
F 1 "100nF" V 5312 1900 50  0000 C CNN
F 2 "Capacitor_SMD:C_1206_3216Metric_Pad1.33x1.80mm_HandSolder" H 5450 1900 50  0001 C CNN
F 3 "~" H 5450 1900 50  0001 C CNN
	1    5450 1900
	0    1    1    0   
$EndComp
Wire Wire Line
	5550 1550 5700 1550
Connection ~ 5700 1550
Wire Wire Line
	5700 1550 5700 1900
Wire Wire Line
	5550 1900 5700 1900
Connection ~ 5700 1900
Wire Wire Line
	5700 1900 5700 2350
Wire Wire Line
	5350 1550 5150 1550
Wire Wire Line
	5350 1900 5150 1900
Connection ~ 5150 1900
Wire Wire Line
	5150 1900 5150 2000
$Comp
L masterarbeit-rescue:B3U-1000P-dk_Tactile-Switches S1
U 1 1 60128DFA
P 6600 4150
F 0 "S1" H 6600 4447 60  0000 C CNN
F 1 "B3U-1000P" H 6600 4341 60  0000 C CNN
F 2 "digikey-footprints:Switch_Tactile_SMD_B3U-1000P" H 6800 4350 60  0001 L CNN
F 3 "https://omronfs.omron.com/en_US/ecb/products/pdf/en-b3u.pdf" H 6800 4450 60  0001 L CNN
F 4 "SW1020CT-ND" H 6800 4550 60  0001 L CNN "Digi-Key_PN"
F 5 "B3U-1000P" H 6800 4650 60  0001 L CNN "MPN"
F 6 "Switches" H 6800 4750 60  0001 L CNN "Category"
F 7 "Tactile Switches" H 6800 4850 60  0001 L CNN "Family"
F 8 "https://omronfs.omron.com/en_US/ecb/products/pdf/en-b3u.pdf" H 6800 4950 60  0001 L CNN "DK_Datasheet_Link"
F 9 "/product-detail/en/omron-electronics-inc-emc-div/B3U-1000P/SW1020CT-ND/1534357" H 6800 5050 60  0001 L CNN "DK_Detail_Page"
F 10 "SWITCH TACTILE SPST-NO 0.05A 12V" H 6800 5150 60  0001 L CNN "Description"
F 11 "Omron Electronics Inc-EMC Div" H 6800 5250 60  0001 L CNN "Manufacturer"
F 12 "Active" H 6800 5350 60  0001 L CNN "Status"
	1    6600 4150
	1    0    0    -1  
$EndComp
Wire Wire Line
	6800 4150 7200 4150
$Comp
L Device:R R8
U 1 1 6012EEB6
P 7200 4300
F 0 "R8" V 6993 4300 50  0000 C CNN
F 1 "1k" V 7084 4300 50  0000 C CNN
F 2 "Resistor_SMD:R_1206_3216Metric_Pad1.30x1.75mm_HandSolder" V 7130 4300 50  0001 C CNN
F 3 "~" H 7200 4300 50  0001 C CNN
	1    7200 4300
	-1   0    0    1   
$EndComp
$Comp
L power:GND #PWR027
U 1 1 6012F7EF
P 7200 4450
F 0 "#PWR027" H 7200 4200 50  0001 C CNN
F 1 "GND" H 7205 4277 50  0000 C CNN
F 2 "" H 7200 4450 50  0001 C CNN
F 3 "" H 7200 4450 50  0001 C CNN
	1    7200 4450
	1    0    0    -1  
$EndComp
$EndSCHEMATC
